<svg version="1.2" xmlns="http://www.w3.org/2000/svg" viewBox="0 0 72 84" width="72" height="84">
	<title>upload (1)</title>
	<style>
		.s0 { opacity: .8;fill: #bc81e9 } 
	</style>
	<path id="Path 0" fill-rule="evenodd" class="s0" d="m28.4 0h25.6l2 2.8c1.3 1.6 2.1 4.2 2 10.2h4.3c3.3-0.1 4.8 0.5 9.8 5.5l-0.1 22.8c0 13-0.4 23.5-1 24.7-0.5 1.1-2.6 2.7-4.5 3.5-2.5 1.1-7.1 1.5-28.5 1.5v9h7c5.3 0 7.1 0.4 7.5 1.5 0.3 0.8-0.1 1.7-0.8 2-0.6 0.3-8 0.4-16.2 0.3-12.5-0.3-15-0.5-15-1.8 0-1.2 1.5-1.6 13.5-2v-9h-12.3c-6.7 0-13.6-0.4-15.2-0.9-1.7-0.6-3.8-2.2-4.8-3.6-1.5-2.2-1.7-5.3-1.8-48l2.7-2.7c2.2-2.3 3.5-2.8 7.8-2.8 5 0 5.3-0.2 11.6-6.5zm3.6 8.3c0 3.1-0.6 4.8-2.3 6.5-1.5 1.5-3.6 2.3-6.5 2.5l-4.3 0.2v36l34-0.5c-0.1-36.8-0.3-47.8-0.5-48.2-0.3-0.5-5-0.8-10.5-0.8h-10zm-8.2 4.8c1.2 0 2.7-0.9 3.2-2 0.6-1.1 0.9-2.5 0.7-3.1-0.2-0.6-1.6 0.3-3.2 2-2.9 3-2.9 3.1-0.7 3.1zm-19.8 24v16l10 0.5v-36.5c-4.7 0-6.9 0.8-8 2-1.8 1.8-2 3.3-2 18zm54 16.5h10c0-33-0.1-33.6-2.2-35-1.3-0.9-3.5-1.6-5-1.5h-2.8zm-52.5 10.2c1.5 2.3 1.5 2.3 30.4 2.3 24.4 0 29.2-0.3 30.5-1.5 0.9-0.9 1.6-2.7 1.6-4v-2.5c-61.8 0-64 0.1-64 1.7 0 1 0.7 2.8 1.5 4zm30.6-37.7c0.5 0 3.2 1.9 5.9 4.2 2.8 2.3 5 4.6 5 5 0 0.4-0.8 1-1.8 1.4-1 0.3-2.8-0.3-7.2-3.6l-0.3 7.7c-0.1 6.1-0.5 7.8-1.7 7.8-1.2 0-1.6-1.8-2.5-15.8l-2 2.2c-1.1 1.2-2.8 2.1-3.8 2.1-0.9 0-1.9-0.4-2.1-0.8-0.3-0.4-0.2-1.2 0.2-1.9 0.4-0.6 2.7-2.7 5.1-4.7 2.3-2 4.7-3.6 5.2-3.6z"/>
</svg>